…
``` r
# What is the number and percentage of missing values grouped by
# each observation?
miss_case_summary(student_long_dataset3)
```

    ## # A tibble: 101 × 3
    ##     case n_miss pct_miss
    ##    <int>  <int>    <dbl>
    ##  1     3      4       40
    ##  2    11      4       40
    ##  3    14      3       30
    ##  4    36      3       30
    ##  5    66      3       30
    ##  6     9      2       20
    ##  7    16      2       20
    ##  8    51      2       20
    ##  9    56      2       20
    ## 10    79      2       20
    ## # ℹ 91 more rows
…
``` r
# What is the number and percentage of missing values grouped by
# each observation?
miss_case_summary(students_dataset_imputed)
```

    ## # A tibble: 101 × 3
    ##     case n_miss pct_miss
    ##    <int>  <int>    <dbl>
    ##  1     1      0        0
    ##  2     2      0        0
    ##  3     3      0        0
    ##  4     4      0        0
    ##  5     5      0        0
    ##  6     6      0        0
    ##  7     7      0        0
    ##  8     8      0        0
    ##  9     9      0        0
    ## 10    10      0        0
    ## # ℹ 91 more rows
…
